module gitlab.com/codavel/goconfig

go 1.13

require (
	github.com/fsnotify/fsnotify v1.4.9 // indirect
	github.com/mitchellh/mapstructure v1.2.2 // indirect
	github.com/newrelic/go-agent v3.4.0+incompatible
	github.com/pelletier/go-toml v1.6.0 // indirect
	github.com/spf13/afero v1.2.2 // indirect
	github.com/spf13/cast v1.3.1 // indirect
	github.com/spf13/jwalterweatherman v1.1.0 // indirect
	github.com/spf13/pflag v1.0.5 // indirect
	github.com/spf13/viper v1.6.2
	github.com/stretchr/testify v1.4.0
	golang.org/x/sys v0.0.0-20200323222414-85ca7c5b95cd // indirect
	golang.org/x/text v0.3.2 // indirect
	gopkg.in/ini.v1 v1.55.0 // indirect
	gopkg.in/yaml.v2 v2.2.8 // indirect
)
